@startuml


top to bottom direction
skinparam linetype ortho

class clients {
   id: bigint
   --
   address: text
   isDeleted: boolean
   userId: bigint
}

class dishes {
   id: bigint
   --
   name: text
   imageUri: text
   description: text
}
class inspections {
   id: bigint
   --
   userId: bigint
   text: text
   created: timestamp
   result: text
}

class inspectionsdata {
   reportId: bigint
   dataUri: text
}

class menuitems {
   id: bigint
   --
   dishId: bigint
   menuId: bigint
   available: boolean
   cost: numeric(10,2)
   discount: numeric(10,2)  
}

class menus {
   id: bigint
   --
   name: text
   created: timestamp
}
class orderitems {
   menuItemId: bigint
   orderId: bigint
   preference: text
   count: numeric(10,2)
}
class orderreport {
   id: bigint
   --
   orderId: bigint
   text: text
   created: timestamp
   result: text
}
class orderreportsdata {
   reportId: bigint
   dataUri: text
}
class orders {
   id: bigint
   --
   clientId: bigint
   status: varchar(14)
   created: timestamp
   payment: varchar(4)
   comment: text
   deliverId: bigint
}
class promos {
   promoUri: text
   isShown: boolean
}
class users {
   id: bigint
   --
   login: text
   passwordHash: text
   role: varchar(13)
}

clients            }o-- users           
inspections        }o-- users
inspectionsdata    }o-- inspections
menuitems          }o-- dishes
menuitems          }o-- menus
orderitems         }o-- menuitems
orderitems         }o-- orders
orderreport        }o-- orders
orderreportsdata   }o-- orderreport
orders             }o-- clients
orders             }o-- users
@enduml
