@startuml

participant Клиент as cl
participant "Веб страница" as page

cl -> page : Параметры подключения
create "Данные УЗ" as params
page -> params : Параметры пользователя
participant LoginController as cLogin
params -> cLogin : <вызов POST /auth/login>
cLogin -> cLogin : generateToken(params,\nfoundCallback,\nnotFoundCallback)
destroy params
participant UserRepository as uRepo
cLogin -> uRepo : getUserByLogin(params.login)
create "Данные пользователя" as user
uRepo -> user : <create>
cLogin <-- user : "Данные клиента" (user)
participant JwtService as jwt
note right
    При неправильном токене ВСЕГДА выдается ошибка и <Завершение>
end note


alt user найден
    cLogin -> jwt : calculateHash(params.password)
    cLogin <-- jwt : Хэш пароля
    cLogin -> cLogin : hashComparing(saved, calculated)

    alt хэши равны
        cLogin -> jwt : generateToken(user)
        cLogin <-- jwt : JWT Токен
        cLogin -> cLogin : foundCallback(JWTТокен)
        page <-- cLogin : Код OK (200), токен

        par запрос меню
            participant MenuController as cMenu
            page -> cMenu : <вызов GET /menu>, токен
            cMenu -> jwt : getRole()
            cMenu <-- jwt : Роль пользователя

            alt роль пользователя "Клиент"
                participant MenuRepository as mRepo
                cMenu -> mRepo : getCurrentMenu()

                loop для каждого элемента меню
                    create MenuItem
                    mRepo -> MenuItem : <create> 
                end

                MenuItem --> mRepo

                cMenu <-- mRepo : MenuItem []
                page <-- cMenu : Код OK (200), MenuItem []

            else роль пользователя не "Клиент"
                cMenu --> page : Код ошибки (401)
                page --> cl : <Завершение>
            end

        else запрос акций
            participant PromoController as cPromo
            page -> cPromo : <вызов GET /promo>, токен
            cPromo -> jwt : getRole()
            cPromo <-- jwt : Роль пользователя

            alt роль пользователя "Клиент"
                participant PromoRepository as pRepo
                cPromo -> pRepo : getAllPromosData()
                loop для каждого элемента меню
                    create PromoItem
                    pRepo -> PromoItem : <create> 
                end

                PromoItem --> pRepo

                cPromo <-- pRepo : PromoItem []
                cPromo --> page : Код OK (200), PromoItem []

            else роль пользователя не "Клиент"
                cMenu --> page : Код ошибки (401)
                page --> cl : <Завершение>
            end

        end

        loop пока не наберет необходимую корзину
            cl -> page : Выбор позиции
            page -> page : addToCart(id)
        end

        cl -> page : showCart()
        page -> page : openCart(id[])
        participant CartController as cCart
        page -> cCart : <вызов POST /cart/pricing>, id [], token

        cCart -> jwt : tokenValidate(token)
        jwt --> cCart : Role

        alt роль Клиент
            cLogin -> mRepo : calculateCart(id[])
            
            loop для каждого элемента корзины
                create ValidatedCartItem
                mRepo -> ValidatedCartItem : <create> 
            end

            ValidatedCartItem --> mRepo
            mRepo --> cCart : ValidatedCartItem []

            ' Вывод позиций в корзине
            page <-- cCart : ValidatedCartItem []

            alt корзина пуста
                page -> page : hideAddressesList() 
                page -> page : hideOrderButton(), <Завершение>
            else

            par открытие корзины

                opt хочет изменить количество в корзине
                    loop для каждого элемента с неверным кол-вом
                        cl -> page : changeCount() (+ или -)
                        page -> page : updateCart() 
                    end
                end

            else получение адресов
                participant ClientController as cClient
                    page -> cClient : <вызов POST /client/address>, token

                    cClient -> jwt : tokenValidate(tolen)
                    cClient <-- jwt : Role

                    alt роль Клиент
                        participant ClientRepository as cRepo
                        cClient -> cRepo : getClientAddress(id)

                        loop для каждого адреса клиента
                            create ClientAddress
                            cRepo -> ClientAddress : <create> 
                        end
                            cRepo <-- ClientAddress
                            cClient <-- cRepo : ClientAddress []

                            cClient <-- page : ClientAddress []
                            page -> page : showAddresses(address[])

                    else роль НЕ Клиент
                        cClient --> page : Код ошибки (401), <Завершение>
                    end
            end

            alt корзина пуста
                page -> page : hideAddressesList() 
                page -> page : hideOrderButton(), <Завершение>
            end

            opt клиент хочет удалить адрес
                loop каждый адрес под удаление
                    page -> cClient : <вызов DELETE /address>, id, token
                    cClient -> jwt : validateToken(token)
                    cClient <-- jwt : Role

                    alt роль Клиент
                        cClient -> cRepo : deleteAddress(id)
                        cClient <-- cRepo

                        cClient --> page : Код NoContent (204)

                    else роль НЕ Клиент
                        cClient --> page : Возврат ошибки, <Завершение>
                    end

                end
            end

            opt нет нужного адреса
                loop для каждого нового адреса
                    page -> cClient : <вызов POST /client/address>, address, token
                
                    cClient -> jwt : validateToken(token)
                    cClient <-- jwt : Role

                    alt роль Клиент
                        cClient -> cRepo : createAddress(clientId, address)
                        create Address
                        cRepo -> Address
                        cClient <-- cRepo
                        cClient --> page : Код Created (201)

                    else роль НЕ Клиент
                        cClient --> page : Возврат ошибки, <Завершение>
                    end
                end
            end

            alt список адресов пуст
                page -> page : hideAddressesList() 
                page -> page : hideOrderButton(), <Завершение> 
            end

            page -> page : selectAddress(id)
            page -> page : selectPaymentType(id)
            page -> page : addComment(comment)

            page -> page : acceptOrder()

            participant OrderController as cOrder
            
            page -> cOrder : <вызов POST /order>, position [], address, payment type, token

            cOrder -> jwt : validateToken(token)

             alt роль Клиент
                participant OrderRepository as oRepo
                cOrder -> oRepo : createOrder(clientId, address, payment type, position [])
                oRepo -> oRepo : validateOrder(clientId, address, payment type, position [])

                alt заказ может быть сделан
                    create Order
                    oRepo -> Order
                    oRepo <-- Order
                    cOrder <-- oRepo : id
                    cOrder --> page : Код Created (201), id
                    page -> page : Сообщение о создании заказа, <Завершение>, // Success final

                else заказ с ошибками
                    cOrder --> page : Возврат ошибки, <Завершение>
                end 

            else роль НЕ Клиент
                cOrder --> page : Возврат ошибки, <Завершение>
            end

        else роль НЕ Клиент
            cLogin --> page : Возврат ошибки, <Завершение>
        end 

    else хэши НЕ равны
        cLogin -> cLogin : notFoundCallback()
        page <-- cLogin : Код ошибки (404)
        page -> page : Сообщение об ошибке, <Завершение>
        
    end

else user НЕ найден
    cLogin -> cLogin : notFoundCallback()
    page <-- cLogin : Код ошибки (404)
    page -> page : Сообщение об ошибке, <Завершение>
end 
cLogin -> uRepo : 



@enduml